template-chisel/Hello.vcd
$timescale 1ps $end
$scope module Hello $end
$var wire 1 ! clk $end
$var wire 1 " reset $end
$var wire 8 # io_out $end
$upscope $end
$enddefinitions $end
$dumpvars
$end
#0
b1 !
b1 "
b00101010 #
#1
b0 !
#2
b1 !
b1 "
#3
b0 !
#4
b1 !
#5
b0 !
#6
b1 !
#7
b0 !
#8
b1 !
#9
b0 !
#10
b1 !
b0 "
#11
b0 !
#12
b1 !
#13
b0 !
